Register/sim/dump.vcd
$date
	Sat Jan  4 15:02:19 2025
$end
$version
	Questa Intel Starter FPGA Edition Version 2022.4
$end
$timescale
	1ns
$end

$scope module testbench $end
$var reg 1 ! clk $end

$scope module dut $end
$var wire 1 " clk $end
$var wire 1 # rst $end
$var wire 1 $ a [7] $end
$var wire 1 % a [6] $end
$var wire 1 & a [5] $end
$var wire 1 ' a [4] $end
$var wire 1 ( a [3] $end
$var wire 1 ) a [2] $end
$var wire 1 * a [1] $end
$var wire 1 + a [0] $end
$var wire 1 , b [7] $end
$var wire 1 - b [6] $end
$var wire 1 . b [5] $end
$var wire 1 / b [4] $end
$var wire 1 0 b [3] $end
$var wire 1 1 b [2] $end
$var wire 1 2 b [1] $end
$var wire 1 3 b [0] $end
$var wire 1 4 cin $end
$var reg 1 5 cout $end
$var reg 8 6 sum [7:0] $end
$upscope $end
$upscope $end
$enddefinitions $end
#0
$dumpvars
0!
x5
bx 6
x4
x3
x2
x1
x0
x/
x.
x-
x,
x+
x*
x)
x(
x'
x&
x%
x$
x#
0"
$end
#2
1!
1"
13
02
01
00
1/
0.
1-
0,
1+
0*
1)
1(
0'
0&
0%
1$
04
0#
#4
0!
0"
#6
1!
1"
b11011110 6
05
12
1.
1*
0)
1%
14
#8
0!
0"
#10
1!
1"
b111111 6
15
02
11
10
0-
1,
0(
1&
0$
#12
0!
0"
#14
1!
1"
b100001 6
12
00
1-
0*
1)
0&
0%
#16
0!
0"
#18
1!
1"
b11111101 6
05
01
0.
0-
1&
#20
0!
0"
#22
1!
1"
b10111001 6
03
02
0/
1-
0+
1*
04
#24
0!
0"
#26
1!
1"
b11100110 6
12
10
1/
0-
1(
1'
0&
1%
1$
14
#28
0!
0"
#30
1!
1"
b1111001 6
15
13
0/
1.
1-
1+
0*
0%
0$
04
#32
0!
0"
#34
1!
1"
b1000 6
03
11
1/
0.
0+
1*
0'
1&
14
#36
0!
0"
#38
1!
1"
b1101 6
13
02
00
0-
1+
0*
0&
1$
#40
0!
0"
#42
1!
1"
b100011 6
10
0/
1-
0+
1*
0(
1'
1%
#44
0!
0"
#46
1!
1"
b10100100 6
01
1.
0,
1+
0*
1(
0'
1&
0%
0$
04
#48
0!
0"
#50
1!
1"
b10010110 6
05
03
11
1/
0.
0-
1,
1*
0)
0&
14
#52
0!
0"
#54
1!
1"
b10101000 6
13
12
01
1.
0,
0*
0(
1&
1%
#56
0!
0"
#58
1!
1"
b10011101 6
03
02
11
00
0/
0.
1-
1)
0&
0%
04
#60
0!
0"
#62
1!
1"
b1001001 6
1.
1,
0+
1*
0)
1'
1$
14
#64
0!
0"
#66
1!
1"
b1110111 6
15
13
0.
0-
0,
1+
1(
0'
1&
1%
0$
04
#68
0!
0"
#70
1!
1"
b1110000 6
05
03
01
10
1/
1,
0+
0(
1'
0&
#72
0!
0"
#74
1!
1"
b11101010 6
12
11
00
0/
1-
1+
0*
1$
14
#76
0!
0"
#78
1!
1"
b10011000 6
15
13
02
10
1/
1.
0,
0+
1(
0$
04
#80
0!
0"
#82
1!
1"
b11010101 6
05
03
01
00
0/
0.
1,
1*
0'
1&
1$
#84
0!
0"
#86
1!
1"
b10101010 6
15
12
1/
1.
0-
1)
0(
1'
0%
0$
14
#88
0!
0"
#90
1!
1"
b11101001 6
05
13
1-
0*
0)
1(
0'
1%
#92
0!
0"
#94
1!
1"
b1011100 6
15
0/
0-
0,
1+
1*
1)
1'
0&
1$
04
#96
0!
0"
#98
1!
1"
b10 6
03
02
11
0.
1-
0+
0*
0(
0'
0%
14
